2015-11-24 13:20:56.700 : 0000 : Delete bin/Browser.pyc
2015-11-24 13:20:56.700 : 0001 : Delete bin/DefaultSettings.pyc
2015-11-24 13:20:56.701 : 0002 : Delete bin/EncrConst.pyc
2015-11-24 13:20:56.701 : 0003 : Delete bin/Engine.pyc
2015-11-24 13:20:56.702 : 0004 : Delete bin/GuiInterface.pyc
2015-11-24 13:20:56.702 : 0005 : Delete bin/JsScripts.pyc
2015-11-24 13:20:56.703 : 0006 : Delete bin/Logger.pyc
2015-11-24 13:20:56.703 : 0007 : Delete bin/MDConst.pyc
2015-11-24 13:20:56.703 : 0008 : Delete bin/OsInterfaceW7_8_10.pyc
2015-11-24 13:20:56.704 : 0009 : Delete bin/Server.pyc
2015-11-24 13:20:56.704 : 0010 : Delete bin/Statistics.pyc
2015-11-24 13:20:56.709 : 0011 : Delete file: bin/player.html
2015-11-24 13:20:56.709 : 0012 : Error in remove file: bin/player.html
2015-11-24 13:20:56.710 : 0013 : Delete file: bin/new_job.html
2015-11-24 13:20:56.710 : 0014 : Delete file: bin/setup_encr.py
2015-11-24 13:20:56.710 : 0015 : Error in remove file: bin/setup_encr.py
2015-11-24 13:20:56.710 : 0016 : Modify bin/about.html
2015-11-24 13:20:56.714 : 0017 : Modify bin/Browser.py
2015-11-24 13:20:56.715 : 0018 : Modify bin/Browser_old.py
2015-11-24 13:20:56.716 : 0019 : Modify bin/collections.html
2015-11-24 13:20:56.719 : 0020 : Modify bin/default.html
2015-11-24 13:20:56.722 : 0021 : Modify bin/DefaultSettings.py
2015-11-24 13:20:56.723 : 0022 : Modify bin/drives.html
2015-11-24 13:20:56.725 : 0023 : Modify bin/EncrConst.py
2015-11-24 13:20:56.726 : 0024 : Modify bin/Engine.py
2015-11-24 13:20:56.733 : 0025 : Modify bin/explorer.html
2015-11-24 13:20:56.736 : 0026 : Modify bin/fsm.html
2015-11-24 13:20:56.739 : 0027 : Modify bin/generateKey.py
2015-11-24 13:20:56.740 : 0028 : Modify bin/GuiInterface.py
2015-11-24 13:20:56.741 : 0029 : Modify bin/index.html
2015-11-24 13:20:56.747 : 0030 : Modify bin/info.html
2015-11-24 13:20:56.749 : 0031 : Modify bin/JsScripts.py
2015-11-24 13:20:56.750 : 0032 : Modify bin/license.html
2015-11-24 13:20:56.754 : 0033 : Modify bin/lock.html
2015-11-24 13:20:56.757 : 0034 : Modify bin/Logger.py
2015-11-24 13:20:56.758 : 0035 : Modify bin/MDConst.py
2015-11-24 13:20:56.758 : 0036 : Modify bin/MediaDock.py
2015-11-24 13:20:56.761 : 0037 : Modify bin/menu.html
2015-11-24 13:20:56.764 : 0038 : Modify bin/messages.html
2015-11-24 13:20:56.767 : 0039 : Modify bin/OsInterfaceLinux.py
2015-11-24 13:20:56.767 : 0040 : Modify bin/OsInterfaceW7_8_10.py
2015-11-24 13:20:56.768 : 0041 : Modify bin/search.html
2015-11-24 13:20:56.772 : 0042 : Modify bin/Server.py
2015-11-24 13:20:56.776 : 0043 : Modify bin/service.html
2015-11-24 13:20:56.780 : 0044 : Modify bin/settings.html
2015-11-24 13:20:56.783 : 0045 : Modify bin/statistics.html
2015-11-24 13:20:56.786 : 0046 : Modify bin/Statistics.py
2015-11-24 13:20:56.787 : 0047 : Modify bin/Statistics_old.py
2015-11-24 13:20:56.789 : 0048 : Modify bin/terms_of_use.html
2015-11-24 13:21:30.724 : 0049 : Modify files/splash_screen.svg
2015-11-24 13:21:32.225 : 0050 : Delete file files/splash_screen.svg
2015-11-24 13:21:32.418 : 0051 : Create RELEASE_NOTES.txt
2015-11-24 13:21:32.419 : 0052 : Modify E:\Softwareentwicklung\PyCharmProjects\MediaDock\InstallerScript.iss
2015-11-24 13:21:32.475 : 0053 : iscc.exe "E:\Softwareentwicklung\PyCharmProjects\MediaDock\releases\Build0014 Release NB_151124_A\InstallerScript.iss"
2015-11-24 13:22:03.959 : 0054 : Finished
