2015-11-23 22:24:12.256 : 0000 : Delete bin/Browser.pyc
2015-11-23 22:24:12.257 : 0001 : Delete bin/DefaultSettings.pyc
2015-11-23 22:24:12.257 : 0002 : Delete bin/EncrConst.pyc
2015-11-23 22:24:12.257 : 0003 : Delete bin/Engine.pyc
2015-11-23 22:24:12.258 : 0004 : Delete bin/GuiInterface.pyc
2015-11-23 22:24:12.258 : 0005 : Delete bin/JsScripts.pyc
2015-11-23 22:24:12.258 : 0006 : Delete bin/Logger.pyc
2015-11-23 22:24:12.259 : 0007 : Delete bin/MDConst.pyc
2015-11-23 22:24:12.259 : 0008 : Delete bin/OsInterfaceW7_8_10.pyc
2015-11-23 22:24:12.259 : 0009 : Delete bin/Server.pyc
2015-11-23 22:24:12.259 : 0010 : Delete bin/Statistics.pyc
2015-11-23 22:24:12.265 : 0011 : Delete file: bin/player.html
2015-11-23 22:24:12.265 : 0012 : Error in remove file: bin/player.html
2015-11-23 22:24:12.265 : 0013 : Delete file: bin/new_job.html
2015-11-23 22:24:12.266 : 0014 : Delete file: bin/setup_encr.py
2015-11-23 22:24:12.266 : 0015 : Error in remove file: bin/setup_encr.py
2015-11-23 22:24:12.266 : 0016 : Modify bin/about.html
2015-11-23 22:24:12.269 : 0017 : Modify bin/Browser.py
2015-11-23 22:24:12.271 : 0018 : Modify bin/Browser_old.py
2015-11-23 22:24:12.272 : 0019 : Modify bin/collections.html
2015-11-23 22:24:12.275 : 0020 : Modify bin/default.html
2015-11-23 22:24:12.277 : 0021 : Modify bin/DefaultSettings.py
2015-11-23 22:24:12.278 : 0022 : Modify bin/drives.html
2015-11-23 22:24:12.281 : 0023 : Modify bin/EncrConst.py
2015-11-23 22:24:12.281 : 0024 : Modify bin/Engine.py
2015-11-23 22:24:12.289 : 0025 : Modify bin/explorer.html
2015-11-23 22:24:12.292 : 0026 : Modify bin/fsm.html
2015-11-23 22:24:12.295 : 0027 : Modify bin/generateKey.py
2015-11-23 22:24:12.295 : 0028 : Modify bin/GuiInterface.py
2015-11-23 22:24:12.297 : 0029 : Modify bin/index.html
2015-11-23 22:24:12.302 : 0030 : Modify bin/info.html
2015-11-23 22:24:12.306 : 0031 : Modify bin/JsScripts.py
2015-11-23 22:24:12.307 : 0032 : Modify bin/license.html
2015-11-23 22:24:12.310 : 0033 : Modify bin/lock.html
2015-11-23 22:24:12.313 : 0034 : Modify bin/Logger.py
2015-11-23 22:24:12.314 : 0035 : Modify bin/MDConst.py
2015-11-23 22:24:12.315 : 0036 : Modify bin/MediaDock.py
2015-11-23 22:24:12.318 : 0037 : Modify bin/menu.html
2015-11-23 22:24:12.321 : 0038 : Modify bin/messages.html
2015-11-23 22:24:12.323 : 0039 : Modify bin/OsInterfaceLinux.py
2015-11-23 22:24:12.324 : 0040 : Modify bin/OsInterfaceW7_8_10.py
2015-11-23 22:24:12.325 : 0041 : Modify bin/search.html
2015-11-23 22:24:12.328 : 0042 : Modify bin/Server.py
2015-11-23 22:24:12.333 : 0043 : Modify bin/service.html
2015-11-23 22:24:12.336 : 0044 : Modify bin/settings.html
2015-11-23 22:24:12.339 : 0045 : Modify bin/statistics.html
2015-11-23 22:24:12.342 : 0046 : Modify bin/Statistics.py
2015-11-23 22:24:12.343 : 0047 : Modify bin/Statistics_old.py
2015-11-23 22:24:12.345 : 0048 : Modify bin/terms_of_use.html
2015-11-23 22:24:36.013 : 0049 : Modify files/splash_screen.svg
2015-11-23 22:24:37.030 : 0050 : Delete file files/splash_screen.svg
2015-11-23 22:24:37.181 : 0051 : Create RELEASE_NOTES.txt
2015-11-23 22:24:37.181 : 0052 : Modify E:\Softwareentwicklung\PyCharmProjects\MediaDock\InstallerScript.iss
2015-11-23 22:24:37.182 : 0053 : iscc.exe "E:\Softwareentwicklung\PyCharmProjects\MediaDock\releases\Build0013 Release 0.13.3\InstallerScript.iss"
2015-11-23 22:24:53.071 : 0054 : Finished
