<?xml version="1.0" encoding="UTF-8" standalone="no"?>
<!DOCTYPE svg PUBLIC "-//W3C//DTD SVG 1.1//EN"
 "http://www.w3.org/Graphics/SVG/1.1/DTD/svg11.dtd">
<!-- Generated by graphviz version 2.38.0 (20140413.2041)
 -->
<!-- Title: FSM Timer MediaDock Pages: 1 -->
<svg width="946pt" height="813pt"
 viewBox="0.00 0.00 946.00 813.00" xmlns="http://www.w3.org/2000/svg" xmlns:xlink="http://www.w3.org/1999/xlink">
<g id="graph0" class="graph" transform="scale(1 1) rotate(0) translate(4 809)">
<title>FSM Timer MediaDock</title>
<polygon fill="white" stroke="none" points="-4,4 -4,-809 942,-809 942,4 -4,4"/>
<!-- 0 -->
<g id="node1" class="node"><title>0</title>
<ellipse fill="red" stroke="black" cx="644" cy="-787" rx="33.2948" ry="18"/>
<text text-anchor="middle" x="644" y="-783.3" font-family="Times New Roman,serif" font-size="14.00">0 start</text>
</g>
<!-- 1 -->
<g id="node2" class="node"><title>1</title>
<ellipse fill="none" stroke="black" cx="590" cy="-613" rx="29.4969" ry="18"/>
<text text-anchor="middle" x="590" y="-609.3" font-family="Times New Roman,serif" font-size="14.00">1 run</text>
</g>
<!-- 0&#45;&gt;1 -->
<g id="edge1" class="edge"><title>0&#45;&gt;1</title>
<path fill="none" stroke="black" d="M638.724,-769.195C629.328,-739.267 609.628,-676.518 598.367,-640.652"/>
<polygon fill="black" stroke="black" points="601.632,-639.366 595.297,-630.873 594.954,-641.463 601.632,-639.366"/>
<text text-anchor="middle" x="634" y="-696.3" font-family="Times New Roman,serif" font-size="14.00">else</text>
</g>
<!-- 6 -->
<g id="node7" class="node"><title>6</title>
<ellipse fill="none" stroke="black" cx="746" cy="-700" rx="85.5853" ry="18"/>
<text text-anchor="middle" x="746" y="-696.3" font-family="Times New Roman,serif" font-size="14.00">6 ask shutdown start</text>
</g>
<!-- 0&#45;&gt;6 -->
<g id="edge2" class="edge"><title>0&#45;&gt;6</title>
<path fill="none" stroke="black" d="M661.303,-771.581C676.878,-758.601 700.043,-739.297 718.212,-724.157"/>
<polygon fill="black" stroke="black" points="720.722,-726.621 726.163,-717.531 716.24,-721.244 720.722,-726.621"/>
<text text-anchor="middle" x="719" y="-739.8" font-family="Times New Roman,serif" font-size="14.00">nr day</text>
</g>
<!-- 2 -->
<g id="node3" class="node"><title>2</title>
<ellipse fill="none" stroke="black" cx="498" cy="-526" rx="109.681" ry="18"/>
<text text-anchor="middle" x="498" y="-522.3" font-family="Times New Roman,serif" font-size="14.00">2 wait for engine stop timer</text>
</g>
<!-- 1&#45;&gt;2 -->
<g id="edge3" class="edge"><title>1&#45;&gt;2</title>
<path fill="none" stroke="black" d="M574.393,-597.581C560.56,-584.8 540.088,-565.886 523.818,-550.853"/>
<polygon fill="black" stroke="black" points="525.936,-548.045 516.216,-543.83 521.186,-553.187 525.936,-548.045"/>
<text text-anchor="middle" x="593.5" y="-565.8" font-family="Times New Roman,serif" font-size="14.00">timer shutdown</text>
</g>
<!-- 3 -->
<g id="node4" class="node"><title>3</title>
<ellipse fill="none" stroke="black" cx="485" cy="-352" rx="109.381" ry="18"/>
<text text-anchor="middle" x="485" y="-348.3" font-family="Times New Roman,serif" font-size="14.00">3 wait for enigne stop hand</text>
</g>
<!-- 1&#45;&gt;3 -->
<g id="edge4" class="edge"><title>1&#45;&gt;3</title>
<path fill="none" stroke="black" d="M561.113,-610.157C501.234,-604.499 366.298,-581.648 332,-490 311.588,-435.458 379.505,-394.745 431.348,-372.417"/>
<polygon fill="black" stroke="black" points="432.938,-375.546 440.817,-368.463 430.24,-369.087 432.938,-375.546"/>
<text text-anchor="middle" x="375" y="-478.8" font-family="Times New Roman,serif" font-size="14.00">hand shutdown</text>
</g>
<!-- 8 -->
<g id="node9" class="node"><title>8</title>
<ellipse fill="none" stroke="black" cx="533" cy="-178" rx="92.0841" ry="18"/>
<text text-anchor="middle" x="533" y="-174.3" font-family="Times New Roman,serif" font-size="14.00">8 wait engine stop quit</text>
</g>
<!-- 1&#45;&gt;8 -->
<g id="edge5" class="edge"><title>1&#45;&gt;8</title>
<path fill="none" stroke="black" d="M610.408,-599.992C620.179,-593.76 631.738,-585.648 641,-577 678.404,-542.076 784,-447.674 784,-396.5 784,-396.5 784,-396.5 784,-264 784,-227.749 688.887,-203.919 615.76,-190.955"/>
<polygon fill="black" stroke="black" points="616.05,-187.453 605.6,-189.197 614.857,-194.351 616.05,-187.453"/>
<text text-anchor="middle" x="795" y="-391.8" font-family="Times New Roman,serif" font-size="14.00">quit</text>
</g>
<!-- 2&#45;&gt;3 -->
<g id="edge6" class="edge"><title>2&#45;&gt;3</title>
<path fill="none" stroke="black" d="M463.593,-508.788C443.683,-497.369 420.376,-480.009 409,-457 401.909,-442.657 402.469,-435.606 409,-421 417.232,-402.589 433.184,-387.1 448.357,-375.577"/>
<polygon fill="black" stroke="black" points="450.592,-378.28 456.653,-369.59 446.496,-372.604 450.592,-378.28"/>
<text text-anchor="middle" x="452" y="-435.3" font-family="Times New Roman,serif" font-size="14.00">hand shutdown</text>
</g>
<!-- 4 -->
<g id="node5" class="node"><title>4</title>
<ellipse fill="none" stroke="black" cx="592" cy="-439" rx="88.2844" ry="18"/>
<text text-anchor="middle" x="592" y="-435.3" font-family="Times New Roman,serif" font-size="14.00">4 ask shutdown timer</text>
</g>
<!-- 2&#45;&gt;4 -->
<g id="edge7" class="edge"><title>2&#45;&gt;4</title>
<path fill="none" stroke="black" d="M516.571,-508.207C530.605,-495.517 550.054,-477.93 565.688,-463.793"/>
<polygon fill="black" stroke="black" points="568.397,-466.062 573.467,-456.758 563.702,-460.869 568.397,-466.062"/>
<text text-anchor="middle" x="583" y="-478.8" font-family="Times New Roman,serif" font-size="14.00">engine stop</text>
</g>
<!-- 5 -->
<g id="node6" class="node"><title>5</title>
<ellipse fill="none" stroke="black" cx="216" cy="-265" rx="50.0912" ry="18"/>
<text text-anchor="middle" x="216" y="-261.3" font-family="Times New Roman,serif" font-size="14.00">5 run timer</text>
</g>
<!-- 2&#45;&gt;5 -->
<g id="edge8" class="edge"><title>2&#45;&gt;5</title>
<path fill="none" stroke="black" d="M414.933,-514.134C345.619,-500.477 249.917,-470.062 197,-403 168.906,-367.396 180.128,-344.179 194,-301 195.032,-297.788 196.426,-294.576 198.015,-291.472"/>
<polygon fill="black" stroke="black" points="201.18,-292.993 203.199,-282.592 195.135,-289.464 201.18,-292.993"/>
<text text-anchor="middle" x="249.5" y="-391.8" font-family="Times New Roman,serif" font-size="14.00">not auto shutdown</text>
</g>
<!-- 2&#45;&gt;8 -->
<g id="edge9" class="edge"><title>2&#45;&gt;8</title>
<path fill="none" stroke="black" d="M583.909,-514.762C621.768,-505.74 663.386,-488.797 689,-457 713.889,-426.103 703.173,-409.245 709,-370 717.039,-315.862 746.202,-291.967 715,-247 693.556,-216.096 656.259,-199.213 620.99,-190"/>
<polygon fill="black" stroke="black" points="621.654,-186.559 611.111,-187.599 620.001,-193.361 621.654,-186.559"/>
<text text-anchor="middle" x="728" y="-348.3" font-family="Times New Roman,serif" font-size="14.00">quit</text>
</g>
<!-- 3&#45;&gt;5 -->
<g id="edge10" class="edge"><title>3&#45;&gt;5</title>
<path fill="none" stroke="black" d="M418.956,-337.647C396.636,-332.149 371.848,-324.942 350,-316 337.653,-310.947 336.19,-306.42 324,-301 305.059,-292.579 283.453,-285.17 264.569,-279.363"/>
<polygon fill="black" stroke="black" points="265.555,-276.005 254.971,-276.475 263.539,-282.708 265.555,-276.005"/>
<text text-anchor="middle" x="368" y="-304.8" font-family="Times New Roman,serif" font-size="14.00">cancel</text>
</g>
<!-- 7 -->
<g id="node8" class="node"><title>7</title>
<ellipse fill="none" stroke="black" cx="653" cy="-265" rx="53.0913" ry="18"/>
<text text-anchor="middle" x="653" y="-261.3" font-family="Times New Roman,serif" font-size="14.00">7 shutdown</text>
</g>
<!-- 3&#45;&gt;7 -->
<g id="edge11" class="edge"><title>3&#45;&gt;7</title>
<path fill="none" stroke="black" d="M544.483,-336.861C561.393,-331.585 579.431,-324.703 595,-316 607.761,-308.866 620.261,-298.635 630.37,-289.284"/>
<polygon fill="black" stroke="black" points="632.791,-291.811 637.599,-282.37 627.953,-286.752 632.791,-291.811"/>
<text text-anchor="middle" x="648" y="-304.8" font-family="Times New Roman,serif" font-size="14.00">engine stop</text>
</g>
<!-- 3&#45;&gt;8 -->
<g id="edge12" class="edge"><title>3&#45;&gt;8</title>
<path fill="none" stroke="black" d="M458.341,-334.455C441.885,-322.489 422.37,-304.651 414,-283 408.23,-268.076 408.23,-261.924 414,-247 423.393,-222.705 446.512,-206.753 469.901,-196.452"/>
<polygon fill="black" stroke="black" points="471.272,-199.673 479.198,-192.643 468.618,-193.196 471.272,-199.673"/>
<text text-anchor="middle" x="425" y="-261.3" font-family="Times New Roman,serif" font-size="14.00">quit</text>
</g>
<!-- 4&#45;&gt;3 -->
<g id="edge13" class="edge"><title>4&#45;&gt;3</title>
<path fill="none" stroke="black" d="M553.32,-422.679C542.541,-417.378 531.259,-410.778 522,-403 513.899,-396.195 506.58,-387.276 500.631,-378.857"/>
<polygon fill="black" stroke="black" points="503.423,-376.737 494.951,-370.375 497.606,-380.632 503.423,-376.737"/>
<text text-anchor="middle" x="565" y="-391.8" font-family="Times New Roman,serif" font-size="14.00">hand shutdown</text>
</g>
<!-- 4&#45;&gt;5 -->
<g id="edge14" class="edge"><title>4&#45;&gt;5</title>
<path fill="none" stroke="black" d="M528.729,-426.365C518.782,-424.556 508.614,-422.718 499,-421 494.947,-420.276 209.649,-373.152 207,-370 189.123,-348.73 195.886,-315.636 204.188,-292.509"/>
<polygon fill="black" stroke="black" points="207.536,-293.556 207.9,-282.968 201.013,-291.018 207.536,-293.556"/>
<text text-anchor="middle" x="287" y="-348.3" font-family="Times New Roman,serif" font-size="14.00">not auto shutdown or cancel</text>
</g>
<!-- 4&#45;&gt;7 -->
<g id="edge15" class="edge"><title>4&#45;&gt;7</title>
<path fill="none" stroke="black" d="M616.433,-421.464C623.287,-416.094 630.391,-409.761 636,-403 663.929,-369.339 671.468,-358.452 682,-316 683.605,-309.529 684.261,-307.272 682,-301 680.692,-297.372 678.827,-293.853 676.664,-290.534"/>
<polygon fill="black" stroke="black" points="679.247,-288.147 670.425,-282.279 673.662,-292.367 679.247,-288.147"/>
<text text-anchor="middle" x="691" y="-348.3" font-family="Times New Roman,serif" font-size="14.00">timer</text>
</g>
<!-- 4&#45;&gt;8 -->
<g id="edge16" class="edge"><title>4&#45;&gt;8</title>
<path fill="none" stroke="black" d="M601.507,-421.064C604.152,-415.486 606.664,-409.137 608,-403 612.165,-383.873 610.775,-345.66 603,-334 593.514,-319.775 578.948,-329.906 569,-316 550.931,-290.744 565.839,-277.048 558,-247 554.342,-232.979 548.914,-217.806 544.049,-205.358"/>
<polygon fill="black" stroke="black" points="547.281,-204.014 540.313,-196.033 540.783,-206.617 547.281,-204.014"/>
<text text-anchor="middle" x="580" y="-304.8" font-family="Times New Roman,serif" font-size="14.00">quit</text>
</g>
<!-- 5&#45;&gt;1 -->
<g id="edge17" class="edge"><title>5&#45;&gt;1</title>
<path fill="none" stroke="black" d="M172.549,-273.956C109.473,-286.762 0,-314.277 0,-351 0,-527 0,-527 0,-527 0,-582.796 418.707,-604.907 550.666,-610.49"/>
<polygon fill="black" stroke="black" points="550.605,-613.99 560.742,-610.907 550.895,-606.996 550.605,-613.99"/>
<text text-anchor="middle" x="21" y="-435.3" font-family="Times New Roman,serif" font-size="14.00">set_run</text>
</g>
<!-- 5&#45;&gt;2 -->
<g id="edge18" class="edge"><title>5&#45;&gt;2</title>
<path fill="none" stroke="black" d="M179.878,-277.666C120.914,-298.671 14.3322,-346.016 54,-403 93.7739,-460.137 284.953,-495.999 403.104,-513.088"/>
<polygon fill="black" stroke="black" points="402.849,-516.587 413.243,-514.534 403.837,-509.657 402.849,-516.587"/>
<text text-anchor="middle" x="119" y="-391.8" font-family="Times New Roman,serif" font-size="14.00">timer &amp; auto shutdown</text>
</g>
<!-- 5&#45;&gt;3 -->
<g id="edge19" class="edge"><title>5&#45;&gt;3</title>
<path fill="none" stroke="black" d="M217.736,-283.446C219.787,-294.475 224.259,-308.092 234,-316 234.203,-316.164 322.486,-328.45 394.281,-338.418"/>
<polygon fill="black" stroke="black" points="393.905,-341.899 404.292,-339.807 394.868,-334.965 393.905,-341.899"/>
<text text-anchor="middle" x="277" y="-304.8" font-family="Times New Roman,serif" font-size="14.00">hand shutdown</text>
</g>
<!-- 5&#45;&gt;8 -->
<g id="edge20" class="edge"><title>5&#45;&gt;8</title>
<path fill="none" stroke="black" d="M249.148,-251.509C278.91,-240.605 323.953,-224.868 364,-214 394.135,-205.822 427.741,-198.502 456.999,-192.697"/>
<polygon fill="black" stroke="black" points="458.012,-196.065 467.153,-190.708 456.667,-189.195 458.012,-196.065"/>
<text text-anchor="middle" x="375" y="-217.8" font-family="Times New Roman,serif" font-size="14.00">quit</text>
</g>
<!-- 6&#45;&gt;1 -->
<g id="edge21" class="edge"><title>6&#45;&gt;1</title>
<path fill="none" stroke="black" d="M716.658,-683.012C689.062,-667.976 647.939,-645.569 620.099,-630.4"/>
<polygon fill="black" stroke="black" points="621.662,-627.266 611.206,-625.555 618.313,-633.413 621.662,-627.266"/>
<text text-anchor="middle" x="696" y="-652.8" font-family="Times New Roman,serif" font-size="14.00">cancel</text>
</g>
<!-- 6&#45;&gt;3 -->
<g id="edge22" class="edge"><title>6&#45;&gt;3</title>
<path fill="none" stroke="black" d="M746,-681.744C746,-664.57 746,-637.464 746,-614 746,-614 746,-614 746,-481.5 746,-408.058 661.792,-376.589 589.038,-363.106"/>
<polygon fill="black" stroke="black" points="589.313,-359.601 578.858,-361.32 588.103,-366.495 589.313,-359.601"/>
<text text-anchor="middle" x="789" y="-522.3" font-family="Times New Roman,serif" font-size="14.00">hand shutdown</text>
</g>
<!-- 6&#45;&gt;7 -->
<g id="edge23" class="edge"><title>6&#45;&gt;7</title>
<path fill="none" stroke="black" d="M817.456,-689.898C861.65,-679.805 910,-658.576 910,-614 910,-614 910,-614 910,-481.5 910,-373.252 774.472,-308.577 700.254,-281.275"/>
<polygon fill="black" stroke="black" points="701.24,-277.911 690.645,-277.824 698.873,-284.499 701.24,-277.911"/>
<text text-anchor="middle" x="924" y="-478.8" font-family="Times New Roman,serif" font-size="14.00">timer</text>
</g>
<!-- 6&#45;&gt;8 -->
<g id="edge24" class="edge"><title>6&#45;&gt;8</title>
<path fill="none" stroke="black" d="M792.368,-684.841C823.93,-672.001 860,-649.55 860,-614 860,-614 860,-614 860,-264 860,-215.916 725.884,-194.558 629.434,-185.416"/>
<polygon fill="black" stroke="black" points="629.621,-181.918 619.343,-184.49 628.982,-188.889 629.621,-181.918"/>
<text text-anchor="middle" x="871" y="-435.3" font-family="Times New Roman,serif" font-size="14.00">quit</text>
</g>
<!-- 10 -->
<g id="node11" class="node"><title>10</title>
<ellipse fill="none" stroke="black" cx="627" cy="-18" rx="35.194" ry="18"/>
<text text-anchor="middle" x="627" y="-14.3" font-family="Times New Roman,serif" font-size="14.00">10 end</text>
</g>
<!-- 7&#45;&gt;10 -->
<g id="edge25" class="edge"><title>7&#45;&gt;10</title>
<path fill="none" stroke="black" d="M651.172,-246.772C646.724,-204.863 635.31,-97.3087 629.912,-46.442"/>
<polygon fill="black" stroke="black" points="633.362,-45.7837 628.826,-36.2089 626.401,-46.5224 633.362,-45.7837"/>
</g>
<!-- 8&#45;&gt;3 -->
<g id="edge26" class="edge"><title>8&#45;&gt;3</title>
<path fill="none" stroke="black" d="M511.361,-195.727C497.188,-208.134 479.881,-226.412 472,-247 462.44,-271.973 468.14,-302.545 474.73,-324.059"/>
<polygon fill="black" stroke="black" points="471.5,-325.44 477.973,-333.828 478.144,-323.235 471.5,-325.44"/>
<text text-anchor="middle" x="515" y="-261.3" font-family="Times New Roman,serif" font-size="14.00">hand shutdown</text>
</g>
<!-- 8&#45;&gt;5 -->
<g id="edge27" class="edge"><title>8&#45;&gt;5</title>
<path fill="none" stroke="black" d="M448.374,-185.34C385.367,-191.016 305.247,-200.531 275,-214 261.121,-220.18 247.984,-230.666 237.645,-240.443"/>
<polygon fill="black" stroke="black" points="234.961,-238.176 230.318,-247.699 239.886,-243.149 234.961,-238.176"/>
<text text-anchor="middle" x="293" y="-217.8" font-family="Times New Roman,serif" font-size="14.00">cancel</text>
</g>
<!-- 9 -->
<g id="node10" class="node"><title>9</title>
<ellipse fill="none" stroke="black" cx="574" cy="-91" rx="31.3957" ry="18"/>
<text text-anchor="middle" x="574" y="-87.3" font-family="Times New Roman,serif" font-size="14.00">9 quit</text>
</g>
<!-- 8&#45;&gt;9 -->
<g id="edge28" class="edge"><title>8&#45;&gt;9</title>
<path fill="none" stroke="black" d="M541.297,-159.799C547.096,-147.776 554.944,-131.506 561.498,-117.918"/>
<polygon fill="black" stroke="black" points="564.802,-119.125 565.994,-108.597 558.497,-116.083 564.802,-119.125"/>
<text text-anchor="middle" x="588" y="-130.8" font-family="Times New Roman,serif" font-size="14.00">engine stop</text>
</g>
<!-- 9&#45;&gt;10 -->
<g id="edge29" class="edge"><title>9&#45;&gt;10</title>
<path fill="none" stroke="black" d="M585.762,-74.2428C592.529,-65.1783 601.175,-53.5959 608.801,-43.38"/>
<polygon fill="black" stroke="black" points="611.726,-45.3126 614.903,-35.2054 606.116,-41.1253 611.726,-45.3126"/>
</g>
</g>
</svg>
