<?xml version="1.0" encoding="UTF-8" standalone="no"?>
<!-- Created with Inkscape (http://www.inkscape.org/) -->

<svg
   xmlns:dc="http://purl.org/dc/elements/1.1/"
   xmlns:cc="http://creativecommons.org/ns#"
   xmlns:rdf="http://www.w3.org/1999/02/22-rdf-syntax-ns#"
   xmlns:svg="http://www.w3.org/2000/svg"
   xmlns="http://www.w3.org/2000/svg"
   xmlns:xlink="http://www.w3.org/1999/xlink"
   xmlns:sodipodi="http://sodipodi.sourceforge.net/DTD/sodipodi-0.dtd"
   xmlns:inkscape="http://www.inkscape.org/namespaces/inkscape"
   width="745"
   height="450"
   id="svg2"
   version="1.1"
   inkscape:version="0.91 r13725"
   sodipodi:docname="splash_screen.svg">
  <defs
     id="defs4">
    <linearGradient
       id="linearGradient3755">
      <stop
         style="stop-color:#fef400;stop-opacity:1;"
         offset="0"
         id="stop3757" />
      <stop
         style="stop-color:#fffbfb;stop-opacity:1;"
         offset="1"
         id="stop3759" />
    </linearGradient>
    <linearGradient
       inkscape:collect="always"
       xlink:href="#linearGradient3755"
       id="linearGradient3761"
       x1="282.84271"
       y1="566.7428"
       x2="785.40607"
       y2="1481.941"
       gradientUnits="userSpaceOnUse" />
  </defs>
  <sodipodi:namedview
     id="base"
     pagecolor="#ffffff"
     bordercolor="#666666"
     borderopacity="1.0"
     inkscape:pageopacity="0.0"
     inkscape:pageshadow="2"
     inkscape:zoom="1.4"
     inkscape:cx="279.7841"
     inkscape:cy="81.69506"
     inkscape:document-units="px"
     inkscape:current-layer="layer1"
     showgrid="false"
     width="744.09px"
     inkscape:window-width="1366"
     inkscape:window-height="705"
     inkscape:window-x="-8"
     inkscape:window-y="-8"
     inkscape:window-maximized="1" />
  <metadata
     id="metadata7">
    <rdf:RDF>
      <cc:Work
         rdf:about="">
        <dc:format>image/svg+xml</dc:format>
        <dc:type
           rdf:resource="http://purl.org/dc/dcmitype/StillImage" />
        <dc:title />
      </cc:Work>
    </rdf:RDF>
  </metadata>
  <g
     inkscape:label="Ebene 1"
     inkscape:groupmode="layer"
     id="layer1"
     transform="translate(0,-602.36218)">
    <rect
       style="fill:url(#linearGradient3761);fill-opacity:1.0;fill-rule:nonzero;stroke:none"
       id="rect2985"
       width="745"
       height="450"
       x="0"
       y="602.36218"
       rx="0"
       ry="0" />
    <flowRoot
       xml:space="preserve"
       id="flowRoot3763"
       style="font-size:16px;font-style:normal;font-weight:normal;text-align:center;line-height:145.99999189%;letter-spacing:0px;word-spacing:0px;text-anchor:middle;fill:#000000;fill-opacity:1;stroke:none;font-family:Sans"
       transform="translate(36.110759,628.70737)"><flowRegion
         id="flowRegion3765"><rect
           id="rect3767"
           width="739.43188"
           height="228.29454"
           x="6.0609155"
           y="-0.52803588"
           style="text-align:center;line-height:145.99999189%;letter-spacing:0px;text-anchor:middle" /></flowRegion><flowPara
         id="flowPara3769"
         style="font-size:120px;font-style:normal;font-variant:normal;font-weight:normal;font-stretch:normal;text-align:start;line-height:145.99999189%;letter-spacing:0px;text-anchor:start;font-family:Quicksand;-inkscape-font-specification:Quicksand">MediaDock</flowPara></flowRoot>    <flowRoot
       xml:space="preserve"
       id="flowRoot3773"
       style="font-style:normal;font-weight:normal;font-size:16px;line-height:125%;font-family:Sans;letter-spacing:0px;word-spacing:0px;fill:#000000;fill-opacity:1;stroke:none"
       transform="translate(-16.162436,755.90536)"><flowRegion
         id="flowRegion3775"><rect
           id="rect3777"
           width="518.11035"
           height="92.51561"
           x="33.335033"
           y="195.44156" /></flowRegion><flowPara
         id="flowPara3779"
         style="font-style:normal;font-variant:normal;font-weight:normal;font-stretch:normal;font-family:Quicksand;-inkscape-font-specification:Quicksand">Autor: Peter Klassen</flowPara><flowPara
         id="flowPara3817"
         style="font-style:normal;font-variant:normal;font-weight:normal;font-stretch:normal;font-family:Quicksand;-inkscape-font-specification:Quicksand">Copyright +++ replace year +++ by Peter Klassen</flowPara><flowPara
         id="flowPara3836"
         style="font-style:normal;font-variant:normal;font-weight:normal;font-stretch:normal;font-family:Quicksand;-inkscape-font-specification:Quicksand" /><flowPara
         id="flowPara3838"
         style="font-style:normal;font-variant:normal;font-weight:normal;font-stretch:normal;font-family:Quicksand;-inkscape-font-specification:Quicksand">Release: +++ replace release +++ Build: +++ replace build +++</flowPara><flowPara
         id="flowPara3781"
         style="font-style:normal;font-variant:normal;font-weight:normal;font-stretch:normal;font-family:Quicksand;-inkscape-font-specification:Quicksand" /></flowRoot>    <flowRoot
       xml:space="preserve"
       id="flowRoot3840"
       style="fill:black;stroke:none;stroke-opacity:1;stroke-width:1px;stroke-linejoin:miter;stroke-linecap:butt;fill-opacity:1;font-family:Sans;font-style:normal;font-weight:normal;font-size:16px;line-height:125%;letter-spacing:0px;word-spacing:0px"><flowRegion
         id="flowRegion3842"><rect
           id="rect3844"
           width="220.21326"
           height="125.25892"
           x="11.111678"
           y="14.624253" /></flowRegion><flowPara
         id="flowPara3846" /></flowRoot>    <flowRoot
       xml:space="preserve"
       id="flowRoot3848"
       style="fill:black;stroke:none;stroke-opacity:1;stroke-width:1px;stroke-linejoin:miter;stroke-linecap:butt;fill-opacity:1;font-family:Sans;font-style:normal;font-weight:normal;font-size:16px;line-height:125%;letter-spacing:-0.09px;word-spacing:0px"><flowRegion
         id="flowRegion3850"><rect
           id="rect3852"
           width="602.0509"
           height="39.39595"
           x="78.791901"
           y="442.92892"
           style="letter-spacing:-0.09px" /></flowRegion><flowPara
         id="flowPara3854" /></flowRoot>    <g
       transform="matrix(0.54147183,0,0,0.54147183,450.4497,823.20027)"
       id="g3">
      <path
         d="M 607.5625 230.96875 C 604.61635 230.96875 601.78394 231.42682 598.84375 231.84375 C 598.39758 231.95204 597.81103 232.31473 597.78125 232.84375 C 598.33734 235.45419 599.79531 237.75436 600.65625 240.25 L 600.5 240.375 C 596.58732 239.82053 592.48515 240.06901 588.625 239.625 C 586.9838 237.67895 586.31362 234.9899 584.5625 233.4375 L 587.65625 239.1875 L 587.65625 239.5625 C 582.51227 239.45475 577.53506 239.57972 572.84375 240.78125 C 568.28402 242.85834 562.77871 242.72712 558.5 245.5 C 555.86249 245.52978 553.36847 245.99069 551.3125 247.4375 C 550.20194 247.90912 548.86984 247.83399 547.84375 248.5 C 546.14732 249.36311 544.1921 249.83909 542.5 250.5625 C 543.10916 250.39735 543.7602 250.37972 544.3125 250.1875 C 558.50881 249.76623 573.81709 250.08841 587.375 253.78125 C 587.00951 255.05425 587.58437 256.32223 588.5 257.1875 C 589.97226 258.26611 591.79668 259.77229 593.6875 258.96875 C 594.85112 258.50092 594.78852 257.14397 594.84375 256.03125 C 606.7897 261.50932 617.41327 271.61696 625.6875 282.28125 C 629.93914 287.28337 633.63112 292.74865 636.96875 298.25 C 632.41281 289.27998 625.91258 281.25551 618.96875 273.28125 C 611.91662 265.55878 603.59703 258.91864 594.65625 254.78125 C 594.37306 253.69397 594.08083 252.52044 593.96875 251.4375 C 595.82979 251.88205 597.57592 252.53418 599.4375 253.03125 C 599.96435 253.03125 599.6472 253.62902 599.84375 253.90625 C 600.89475 256.15877 602.83488 258.31598 605.5 258.375 C 606.83256 258.31598 606.25509 256.69726 606.75 256.03125 C 610.61448 258.08722 614.42799 260.27694 618.09375 262.78125 C 617.67682 263.17273 617.16097 263.19754 616.96875 263.78125 C 616.24318 264.95137 616.53201 266.27604 617.03125 267.4375 C 618.53275 270.57858 621.7681 273.27143 625.40625 272.96875 C 626.62889 272.93897 627.74713 272.14776 628.21875 271.03125 C 631.63652 273.56263 634.80037 276.54132 637.6875 279.625 C 641.9386 284.4284 646.12215 289.33458 649.09375 294.78125 C 647.97669 292.39119 646.51404 290.08157 644.875 287.96875 L 644.875 287.78125 L 638.6875 279.96875 C 635.38181 276.37933 631.93015 273.1171 628.40625 270.03125 C 628.96072 266.78025 628.10026 263.64402 627.65625 260.5625 C 631.4341 262.98017 635.01192 265.73462 638.375 268.84375 C 637.76205 272.17705 639.40698 275.19789 641.4375 277.5625 C 644.15785 280.72686 648.02636 283.10166 652.5 282.15625 C 655.41637 285.0136 657.47604 288.22859 660.03125 291.03125 C 657.78089 288.00713 655.7369 284.78626 653.15625 281.8125 C 653.65332 281.50819 654.18463 281.29557 654.65625 280.90625 C 656.24276 278.98782 656.75402 276.69529 657.03125 274.25 C 659.66876 276.3612 662.12649 278.96275 664.65625 281.15625 C 666.6023 282.96477 668.00762 285.03593 669.84375 286.8125 C 666.37237 281.92626 661.43496 277.88136 657.15625 273.4375 C 657.23855 269.68943 657.0403 265.88467 656.84375 262.1875 L 657.15625 262.375 L 668.75 271.84375 C 670.49895 273.20555 672.21763 275.25608 673.96875 276.53125 L 673.96875 276.5 C 668.27247 270.97049 662.93732 265.73146 656.65625 261.09375 C 656.21008 258.17522 656.0639 255.88349 655.5625 252.96875 C 655.31505 251.88581 655.56104 250.55881 655.09375 249.5625 C 649.97955 245.72942 644.16411 243.54838 638.21875 241.71875 C 632.07846 240.18747 625.51816 238.27698 618.90625 239.25 L 618.84375 239.5625 C 619.62455 240.76403 620.00857 242.17997 620.5625 243.375 C 618.58884 242.76151 616.35013 242.53134 614.40625 241.96875 C 613.01683 239.00311 611.16448 236.00285 609.5 233.03125 C 608.91413 232.31001 608.56314 231.2162 607.5625 230.96875 z M 608.125 236.84375 C 608.89971 236.80544 609.67012 236.83122 610.40625 236.96875 C 611.42963 238.41773 612.04021 240.01304 612.625 241.625 C 609.2411 240.90645 605.67203 240.63974 602.15625 240.28125 C 601.84761 239.44792 601.39697 238.69688 601.3125 237.78125 C 602.72953 237.33508 604.31897 237.25325 605.84375 237.03125 C 606.5945 236.96248 607.35029 236.88206 608.125 236.84375 z M 584.84375 240.25 L 588.15625 240.5625 L 588.96875 242.53125 C 583.16417 241.94321 577.34836 241.65447 571.625 241.90625 C 575.65626 240.43399 580.45512 240.61603 584.84375 240.25 z M 589.15625 240.5625 C 593.01424 240.6448 597.01701 240.62213 600.875 241.09375 C 601.31901 242.31423 601.88466 243.47066 602.21875 244.71875 C 598.35264 243.91033 594.40649 243.31042 590.4375 242.75 L 589.15625 240.5625 z M 602.5 240.96875 C 605.83113 241.38731 609.54116 241.69359 612.875 242.53125 C 613.62765 244.08419 614.04346 245.9124 614.40625 247.71875 C 611.0984 246.74573 607.59653 245.87401 604.09375 245.09375 L 602.5 240.96875 z M 575.78125 242.5 C 577.66416 242.45661 579.59127 242.48588 581.5625 242.5625 C 584.2612 242.7531 586.65975 242.94043 589.21875 243.4375 C 589.62919 244.35746 590.09777 245.34729 590.375 246.375 L 582.5625 245.78125 L 569.03125 245.5 C 565.72935 245.39441 562.8722 245.62391 559.84375 245.84375 C 564.86604 243.45139 570.13252 242.63018 575.78125 242.5 z M 614.90625 242.84375 C 616.9346 243.3197 618.98565 243.71193 620.90625 244.4375 C 621.87711 246.4913 622.48807 248.64592 623.15625 250.84375 C 621.17446 249.83878 619.0347 249.35584 617.03125 248.4375 C 616.53201 246.49145 615.70979 244.6501 614.90625 242.84375 z M 590.78125 243.625 C 594.70042 244.01215 598.78682 244.77334 602.5625 245.71875 C 602.7845 246.74321 603.29378 247.69668 603.375 248.78125 C 599.73902 247.91598 596.02584 246.99598 592.21875 246.71875 L 590.78125 243.625 z M 568.84375 245.84375 C 576.0372 245.73816 583.42211 246.42209 590.5625 247.03125 C 590.89442 247.97666 591.22625 249.13163 591.5625 250.1875 C 589.58613 250.1875 587.59302 249.375 585.5625 249.375 C 574.09196 247.8735 563.08023 247.77273 551.21875 248.1875 C 556.2761 245.41462 562.84316 246.3197 568.84375 245.84375 z M 604.40625 246.03125 C 607.93665 246.72488 611.29951 247.77682 614.6875 248.78125 C 615.07682 249.77539 615.05144 250.90909 615.21875 251.96875 L 615.15625 252.625 C 614.17889 251.48899 612.87813 250.08523 611.15625 250.5 L 610.3125 251.03125 L 605.5625 249.53125 C 605.28527 248.30644 604.79719 247.17159 604.40625 246.03125 z M 592.5 247.375 C 596.28164 247.90402 600.06838 248.46192 603.5625 249.625 C 603.73036 250.82165 604.0854 251.90584 604.03125 253.1875 C 603.11941 252.18469 601.97953 251.21496 600.5625 251.4375 C 600.06543 251.60481 599.8528 252.19863 599.65625 252.5625 C 597.82228 251.64687 595.61467 251.41508 593.78125 250.71875 L 592.5 247.375 z M 624.40625 248.03125 C 634.51661 250.31139 644.01739 255.22115 652.15625 262.25 C 652.46489 264.60811 652.74908 266.90264 652.5 269.375 C 644.27504 261.98445 635.14655 256.23238 625.5625 251.84375 L 624.40625 248.03125 z M 560.6875 248.1875 L 574.4375 248.71875 C 580.27078 249.27484 586.229 249.83622 591.78125 251.03125 L 592.3125 253.78125 C 590.5852 253.38922 589.11592 252.11702 587.03125 252.53125 C 574.30666 249.89591 560.93151 248.6567 547.875 249.4375 C 549.23518 248.51754 550.95835 248.51037 552.625 248.375 L 560.6875 248.1875 z M 617.375 249.5625 C 619.40335 250.30919 621.42895 251.02203 623.375 251.90625 C 624.01394 253.79707 624.26933 255.75073 624.71875 257.78125 L 624.6875 257.78125 C 622.4052 256.69614 620.24456 255.20051 617.96875 254.3125 C 617.96875 252.58629 617.76432 251.14685 617.375 249.5625 z M 605.84375 250.28125 L 609.90625 251.84375 C 609.7097 253.90188 611.12752 255.75137 612.90625 256.78125 C 613.90906 257.61458 615.34914 257.97309 616.65625 257.53125 C 617.46196 257.00223 617.88428 256.10584 617.96875 255.1875 C 620.30358 256.35058 622.66022 257.57663 624.90625 258.96875 C 625.33943 261.63387 625.75651 264.11961 625.3125 266.84375 C 623.83591 264.76017 621.65639 262.53125 618.90625 262.53125 C 615.01632 259.66957 610.82651 257.52797 606.6875 255.25 C 606.6875 253.47343 606.23523 251.89105 605.84375 250.28125 z M 625.875 252.96875 C 635.32098 257.24746 644.46193 262.86432 652.375 270.25 C 652.31544 271.27609 651.972 272.1874 651.75 273.1875 C 649.94148 269.74211 646.62849 266.20197 642.65625 265.78125 C 641.04429 265.92095 639.4625 266.60989 638.65625 268.03125 C 635.10095 265.05965 631.26857 262.10881 627.40625 259.71875 C 627.07433 257.41316 626.51556 255.16658 625.875 252.96875 z "
         transform="matrix(1.8468181,0,0,1.8468181,-831.89868,-407.84779)"
         id="path7" />
      <g
         id="g39">
        <path
           inkscape:connector-curvature="0"
           d="m 113.23,125.14 c 10.637,0 19.926,2.805 30.113,4.809 2.918,-11.859 3.699,-25.516 7.508,-37.055 5.262,-2.129 11.426,0.336 16.91,1.012 l 62.363,8.055 c 1.902,0.672 3.914,1.793 4.258,4.035 0.441,2.793 0.211,6.152 0.211,8.617 0.793,0 -0.211,0 -0.211,0.336 4.363,1.793 9.625,2.023 15,2.691 24.859,2.906 47.25,5.035 72.328,6.375 2.914,0.789 6.27,0.457 8.621,2.691 4.145,8.398 -1.684,15.562 -3.801,23.398 -10.305,28.555 -18.148,58.566 -21.164,89.805 l -0.562,0.441 c 0.332,17.578 -1.234,37.734 2.352,54.312 l 0.898,0.324 -0.898,1.797 c -43.102,1.566 -83.414,-10.191 -122.49,-21.953 -19.594,-6.605 -38.629,-14.551 -56.434,-25.52 l -2.352,-3.254 c -13.207,-34.938 -22.391,-70.758 -20.156,-109.61 1.01,-4.38 1.9,-10.54 7.5,-11.32 z"
           id="path41" />
        <path
           style="fill:#ffffff"
           inkscape:connector-curvature="0"
           d="m 116.14,131.29 c 4.375,-1.789 10.191,0 14.555,0.559 45.461,9.738 92.375,16.91 139.73,21.16 6.277,1.457 3.699,6.945 4.262,11.875 -2.133,43.328 5.816,90.469 27.43,127.87 -50.727,-1.125 -99.086,-15.121 -144.88,-33.031 -10.191,-6.387 -25.414,-8.062 -29.785,-21.164 -11.082,-31.125 -18.918,-64.277 -15.004,-98.977 0.77,-2.92 1.22,-6.26 3.68,-8.29 z"
           id="path43" />
        <path
           style="fill:#ffffff"
           inkscape:connector-curvature="0"
           d="m 155.44,98.829 69.75,9.066 3.027,1.113 c 2.129,3.359 -0.664,7.176 0.227,10.754 31.57,4.812 61.918,9.184 94.047,10.746 1.008,0.449 1.68,1.117 1.906,2.125 -15.227,48.594 -28.777,100.89 -21.496,154.75 v 0.891 c -8.285,-18.363 -16.566,-37.289 -18.816,-58.336 -1.562,-5.93 -1.785,-13.32 -2.906,-19.594 -2.688,-20.824 0.672,-36.836 -0.895,-57.547 -3.023,-6.387 -10.527,-4.367 -16.125,-5.934 -38.738,-2.914 -77.48,-8.289 -115.21,-16.129 2.13,-9.97 3.13,-21.84 6.49,-31.911 z"
           id="path45" />
      </g>
      <g
         id="g47">
        <path
           inkscape:connector-curvature="0"
           d="m 47.036,129.17 c 28.859,-36.691 69.332,-56.055 109.72,-70.391 4.254,-1.551 9.008,-2.711 13.262,-3.488 -1.746,1.746 -4.359,2.133 -6.582,3.191 -48.91,22.476 -95.294,69.628 -94.13,127.63 1.555,24.109 14.723,43.473 31.859,61.094 4.062,-2.32 7.262,-6.973 11.418,-8.316 l 25.277,29.234 32.539,34.375 17.039,15.59 36.414,30.02 9.289,6.973 v 0.676 c -27.305,-5.035 -54.129,-11.133 -81.043,-17.238 l -28.18,-7.645 -56.648,-15.977 -36.996,-11.61 0.484,-0.969 15.789,-12.586 C 20.981,258.745 11.199,216.522 23.109,176.343 c 4.747,-17.04 12.396,-33.1 23.915,-47.15 z"
           id="path49" />
        <path
           style="fill:#ffffff"
           inkscape:connector-curvature="0"
           d="m 38.419,151.74 c 22.465,-41.641 64.883,-69.723 106.71,-85.801 -27.305,14.43 -54.512,38.539 -67.879,66.918 -17.621,31.953 -16.457,77.652 8.137,106.22 4.84,5.906 9.391,11.324 15.297,15.582 l 10.746,-9.484 h 0.684 c 12.781,15.391 27.309,29.531 40.473,44.824 21.398,21.887 43.961,41.734 68.559,58.969 -34.574,-6.098 -68.465,-14.035 -101.58,-23.621 -22.852,-5.414 -44.441,-13.172 -66.234,-20.242 l -11.621,-4.453 c 3.586,-3.289 8.137,-7.84 12.305,-11.32 l 0.191,-1.172 C 22.059,256.215 15.383,203.922 33.102,163.84 l 5.323,-12.11 z"
           id="path51" />
      </g>
    </g>
  </g>
</svg>
